{
  "name": "mouses-knave",
  "title": "Mouse's Knave",
  "description": "Knave for Foundry VTT with built in Item Compendiums and Automatic Character Generation!",
  "version": "1.3.0",
  "minimumCoreVersion": "0.5.5",
  "compatibleCoreVersion": "10",
  "templateVersion": 2,
  "author": "Aidymouse",
  "esmodules": ["module/knave.js"],
  "styles": ["css/mouses-knave.css"],
  "scripts": [],
  "packs": [
    {
      "name": "armor",
      "label": "Armor",
      "system": "mouses-knave",
      "path": "./packs/armor.db",
      "entity": "Item"
    },
    {
      "name": "bestiary",
      "label": "Bestiary",
      "system": "mouses-knave",
      "path": "./packs/bestiary.db",
      "entity": "Actor"
    },
    {
      "name": "dungeoneering-gear",
      "label": "Dungeoneering Gear",
      "system": "mouses-knave",
      "path": "./packs/dungeoneering-gear.db",
      "entity": "Item"
    },
    {
      "name": "character-generation-tables",
      "label": "Character Generation Tables",
      "system": "mouses-knave",
      "path": "./packs/character-generation-tables.db",
      "entity": "RollTable"
    },

    {
      "name": "general-gear-1",
      "label": "General Gear 1",
      "system": "mouses-knave",
      "path": "./packs/general-gear-1.db",
      "entity": "Item"
    },
    {
      "name": "general-gear-2",
      "label": "General Gear 2",
      "system": "mouses-knave",
      "path": "./packs/general-gear-2.db",
      "entity": "Item"
    },
    {
      "name": "rules-of-knave",
      "label": "Rules of Knave",
      "system": "mouses-knave",
      "path": "./packs/rules-of-knave.db",
      "entity": "Item"
    },
    {
      "name": "tools-and-gear",
      "label": "Tools and Gear",
      "system": "mouses-knave",
      "path": "./packs/tools-and-gear.db",
      "entity": "Item"
    },
    {
      "name": "Weapons and Armor",
      "label": "Weapons and Armor",
      "system": "mouses-knave",
      "path": "./packs/weapons-and-armor.db",
      "entity": "Item"
    }
  ],
  "languages": [
    {
      "lang": "en",
      "name": "English",
      "path": "lang/en.json"
    },
    {
      "lang": "es",
      "name": "Español",
      "path": "lang/es.json"
    }

  ],
  "gridDistance": 5,
  "gridUnits": "ft",
  "primaryTokenAttribute": "health",
  "url": "https://gitlab.com/caleighd1/knave",
  "manifest": "https://gitlab.com/caleighd1/knave/-/raw/main/system.json",
  "download": "https://gitlab.com/caleighd1/knave/-/archive/main/knave-main.zip",
  "license": "LICENSE.txt"
}
